{
  "type": "Filesystem",
  "managed": true,
  "formatType": "csv",
  "checklists": {
    "checklists": []
  },
  "checks": [],
  "customMeta": {
    "kv": {}
  },
  "flowOptions": {
    "virtualizable": false,
    "rebuildBehavior": "NORMAL",
    "crossProjectBuildBehavior": "DEFAULT"
  },
  "readWriteOptions": {
    "preserveOrder": false,
    "writeBuckets": 1,
    "forceSingleOutputFile": false,
    "defaultReadOrdering": {
      "enabled": false,
      "rules": []
    }
  },
  "formatParams": {
    "style": "unix",
    "charset": "utf8",
    "separator": "\t",
    "quoteChar": "\"",
    "escapeChar": "\\",
    "dateSerializationFormat": "ISO",
    "arrayMapFormat": "json",
    "hiveSeparators": [
      "\u0002",
      "\u0003",
      "\u0004",
      "\u0005",
      "\u0006",
      "\u0007",
      "\b"
    ],
    "skipRowsBeforeHeader": 0,
    "parseHeaderRow": false,
    "skipRowsAfterHeader": 0,
    "probableNumberOfRecords": 0,
    "normalizeBooleans": false,
    "normalizeDoubles": true,
    "readAdditionalColumnsBehavior": "INSERT_IN_DATA_WARNING",
    "readMissingColumnsBehavior": "DISCARD_SILENT",
    "readDataTypeMismatchBehavior": "DISCARD_WARNING",
    "writeDataTypeMismatchBehavior": "DISCARD_WARNING",
    "fileReadFailureBehavior": "FAIL",
    "compress": "gz"
  },
  "partitioning": {
    "ignoreNonMatchingFile": false,
    "considerMissingRequestedPartitionsAsEmpty": false,
    "dimensions": []
  },
  "versionTag": {
    "versionNumber": 1,
    "lastModifiedBy": {
      "login": "admin"
    },
    "lastModifiedOn": 1528198180109
  },
  "creationTag": {
    "versionNumber": 0,
    "lastModifiedBy": {
      "login": "admin"
    },
    "lastModifiedOn": 1528197977027
  },
  "tags": [],
  "params": {
    "connection": "another-local-fs",
    "path": "${projectKey}/RESULT_sale_flat_prepared",
    "notReadyIfEmpty": false,
    "filesSelectionRules": {
      "mode": "ALL",
      "excludeRules": [],
      "includeRules": [],
      "explicitFiles": []
    }
  },
  "schema": {
    "columns": [
      {
        "name": "площадь кухни (м²)",
        "type": "string"
      },
      {
        "name": "contacts",
        "type": "string"
      },
      {
        "name": "lat",
        "type": "double"
      },
      {
        "name": "мусоропровод",
        "type": "string"
      },
      {
        "name": "кол-во этажей",
        "type": "bigint"
      },
      {
        "name": "год кап. ремонта",
        "type": "bigint"
      },
      {
        "name": "кол-во подъездов",
        "type": "bigint"
      },
      {
        "name": "планируется снос",
        "type": "string"
      },
      {
        "name": "тип",
        "type": "string"
      },
      {
        "name": "высота потолков",
        "type": "string"
      },
      {
        "name": "кол-во лифтов",
        "type": "bigint"
      },
      {
        "name": "материал здания",
        "type": "string"
      },
      {
        "name": "планируется кап. ремонт",
        "type": "string"
      },
      {
        "name": "жилая площадь (м²)",
        "type": "string"
      },
      {
        "name": "дата обновления объявления",
        "type": "string"
      },
      {
        "name": "дата публикации объявления",
        "type": "string"
      },
      {
        "name": "тип объекта",
        "type": "string"
      },
      {
        "name": "комнаты",
        "type": "string"
      },
      {
        "name": "этаж",
        "type": "string"
      },
      {
        "name": "кух. плита",
        "type": "string"
      },
      {
        "name": "стены",
        "type": "string"
      },
      {
        "name": "price",
        "type": "string",
        "meaning": "DoubleMeaning"
      },
      {
        "name": "площадь",
        "type": "string"
      },
      {
        "name": "lng",
        "type": "double"
      },
      {
        "name": "цена за м²",
        "type": "string"
      },
      {
        "name": "год постройки",
        "type": "bigint"
      },
      {
        "name": "серия",
        "type": "string"
      },
      {
        "name": "перекрытия",
        "type": "string"
      },
      {
        "name": "description",
        "type": "string"
      },
      {
        "name": "цена",
        "type": "string"
      },
      {
        "name": "номер в каталоге",
        "type": "bigint"
      },
      {
        "name": "кол-во подземных этажей",
        "type": "bigint"
      },
      {
        "name": "address",
        "type": "string"
      },
      {
        "name": "heading",
        "type": "string"
      },
      {
        "name": "geo",
        "type": "string"
      }
    ],
    "userModified": true
  },
  "metrics": {
    "probes": [
      {
        "type": "basic",
        "enabled": true,
        "computeOnBuildMode": "PARTITION",
        "meta": {
          "name": "Basic data",
          "level": 0
        },
        "configuration": {}
      },
      {
        "type": "records",
        "enabled": true,
        "computeOnBuildMode": "NO",
        "meta": {
          "name": "Record count",
          "level": 0
        },
        "configuration": {}
      }
    ],
    "engineConfig": {
      "padRunsWithMetrics": false,
      "hive": {
        "active": true,
        "extraConf": []
      },
      "basic": {},
      "dss": {
        "active": true,
        "selection": {
          "useMemTable": false,
          "filter": {
            "distinct": false,
            "enabled": false
          },
          "partitionSelectionMethod": "ALL",
          "latestPartitionsN": 1,
          "ordering": {
            "enabled": false,
            "rules": []
          },
          "samplingMethod": "FULL",
          "maxRecords": -1,
          "targetRatio": 0.02,
          "withinFirstN": -1,
          "maxReadUncompressedBytes": -1
        }
      },
      "sql": {
        "active": true
      },
      "impala": {
        "active": true
      },
      "python": {}
    },
    "displayedState": {
      "columns": [],
      "metrics": [
        "basic:COUNT_COLUMNS",
        "basic:COUNT_FILES",
        "basic:SIZE",
        "records:COUNT_RECORDS"
      ]
    }
  },
  "metricsChecks": {
    "runOnBuild": false,
    "checks": [],
    "displayedState": {
      "checks": []
    }
  }
}